{
	"process_id" : 27431,
	"version" : "2020.3.0f1",
	"app_path" : "/home/x7984018m/Unity/Hub/Editor/2020.3.0f1/Editor/Unity",
	"app_contents_path" : "/home/x7984018m/Unity/Hub/Editor/2020.3.0f1/Editor/Data"
}