%YAML 1.1
%TAG !u! tag:unity3d.com,2011:
--- !u!78 &1
TagManager:
  serializedVersion: 2
  tags:
  - background
  - Player1
  - Player2
  layers:
  - Default
  - TransparentFX
  - Ignore Raycast
  - Player
  - Water
  - UI
  - Background
  - 
  - 
  - 
  - 
  - 
  - 
  - 
  - 
  - 
  - 
  - 
  - 
  - 
  - 
  - 
  - 
  - 
  - 
  - 
  - 
  - 
  - 
  - 
  - 
  - 
  m_SortingLayers:
  - name: Background
    uniqueID: 2819979413
    locked: 0
  - name: player
    uniqueID: 691434559
    locked: 0
  - name: Default
    uniqueID: 0
    locked: 0
