%YAML 1.1
%TAG !u! tag:unity3d.com,2011:
--- !u!74 &7400000
AnimationClip:
  m_ObjectHideFlags: 0
  m_CorrespondingSourceObject: {fileID: 0}
  m_PrefabInstance: {fileID: 0}
  m_PrefabAsset: {fileID: 0}
  m_Name: Jadidle
  serializedVersion: 6
  m_Legacy: 0
  m_Compressed: 0
  m_UseHighQualityCurve: 1
  m_RotationCurves: []
  m_CompressedRotationCurves: []
  m_EulerCurves: []
  m_PositionCurves: []
  m_ScaleCurves: []
  m_FloatCurves: []
  m_PPtrCurves:
  - curve:
    - time: 0
      value: {fileID: 21300000, guid: adcbcdf25077e114299366afdc683271, type: 3}
    - time: 0.016666668
      value: {fileID: 21300000, guid: a842b9e6d0685134280a828a273be5a2, type: 3}
    - time: 0.033333335
      value: {fileID: 21300000, guid: a54f607844aa69d4bb6d3e496c09f6da, type: 3}
    - time: 0.05
      value: {fileID: 21300000, guid: 9afbc4d8a5abc1e4b86080eb741b7896, type: 3}
    - time: 0.06666667
      value: {fileID: 21300000, guid: f5502b638634df444836d6cfab5a732d, type: 3}
    - time: 0.083333336
      value: {fileID: 21300000, guid: b013e02fdec94d04e8fd47e4913bbcb7, type: 3}
    - time: 0.1
      value: {fileID: 21300000, guid: 425ce569488f9734598088801adc9d04, type: 3}
    - time: 0.11666667
      value: {fileID: 21300000, guid: 5ddf4019d118bdd4cad387882e70d4de, type: 3}
    - time: 0.13333334
      value: {fileID: 21300000, guid: 1971b6d2dbf1c3c45a24f2d3c005c0d9, type: 3}
    - time: 0.15
      value: {fileID: 21300000, guid: 665f2d1a00a2eb24ab026ba1ee09a49f, type: 3}
    - time: 0.16666667
      value: {fileID: 21300000, guid: a6afa7ac88050b74bae740c23504d77e, type: 3}
    - time: 0.18333334
      value: {fileID: 21300000, guid: b50c3bcca72ecd14db428c1ae337ba30, type: 3}
    - time: 0.2
      value: {fileID: 21300000, guid: efd8da39f2d15af458bb8a9cfdabae91, type: 3}
    - time: 0.21666667
      value: {fileID: 21300000, guid: 6044ef37cd871fc43afbd0cfe3532caf, type: 3}
    - time: 0.23333333
      value: {fileID: 21300000, guid: 043dfe8167a742c4fa725d6afb684cd8, type: 3}
    - time: 0.25
      value: {fileID: 21300000, guid: f40dd1948795bc445a3c77457e0f845b, type: 3}
    - time: 0.26666668
      value: {fileID: 21300000, guid: 6940461da02b97744bf94ec758cd46e3, type: 3}
    - time: 0.28333333
      value: {fileID: 21300000, guid: af0e4bd35909dc84b82f48006997843b, type: 3}
    - time: 0.3
      value: {fileID: 21300000, guid: ad483f336e6a9714d83d6c5cc1832814, type: 3}
    - time: 0.31666666
      value: {fileID: 21300000, guid: 2581e2b92be37c546aff5597ad39b128, type: 3}
    attribute: m_Sprite
    path: 
    classID: 212
    script: {fileID: 0}
  m_SampleRate: 60
  m_WrapMode: 0
  m_Bounds:
    m_Center: {x: 0, y: 0, z: 0}
    m_Extent: {x: 0, y: 0, z: 0}
  m_ClipBindingConstant:
    genericBindings:
    - serializedVersion: 2
      path: 0
      attribute: 0
      script: {fileID: 0}
      typeID: 212
      customType: 23
      isPPtrCurve: 1
    pptrCurveMapping:
    - {fileID: 21300000, guid: adcbcdf25077e114299366afdc683271, type: 3}
    - {fileID: 21300000, guid: a842b9e6d0685134280a828a273be5a2, type: 3}
    - {fileID: 21300000, guid: a54f607844aa69d4bb6d3e496c09f6da, type: 3}
    - {fileID: 21300000, guid: 9afbc4d8a5abc1e4b86080eb741b7896, type: 3}
    - {fileID: 21300000, guid: f5502b638634df444836d6cfab5a732d, type: 3}
    - {fileID: 21300000, guid: b013e02fdec94d04e8fd47e4913bbcb7, type: 3}
    - {fileID: 21300000, guid: 425ce569488f9734598088801adc9d04, type: 3}
    - {fileID: 21300000, guid: 5ddf4019d118bdd4cad387882e70d4de, type: 3}
    - {fileID: 21300000, guid: 1971b6d2dbf1c3c45a24f2d3c005c0d9, type: 3}
    - {fileID: 21300000, guid: 665f2d1a00a2eb24ab026ba1ee09a49f, type: 3}
    - {fileID: 21300000, guid: a6afa7ac88050b74bae740c23504d77e, type: 3}
    - {fileID: 21300000, guid: b50c3bcca72ecd14db428c1ae337ba30, type: 3}
    - {fileID: 21300000, guid: efd8da39f2d15af458bb8a9cfdabae91, type: 3}
    - {fileID: 21300000, guid: 6044ef37cd871fc43afbd0cfe3532caf, type: 3}
    - {fileID: 21300000, guid: 043dfe8167a742c4fa725d6afb684cd8, type: 3}
    - {fileID: 21300000, guid: f40dd1948795bc445a3c77457e0f845b, type: 3}
    - {fileID: 21300000, guid: 6940461da02b97744bf94ec758cd46e3, type: 3}
    - {fileID: 21300000, guid: af0e4bd35909dc84b82f48006997843b, type: 3}
    - {fileID: 21300000, guid: ad483f336e6a9714d83d6c5cc1832814, type: 3}
    - {fileID: 21300000, guid: 2581e2b92be37c546aff5597ad39b128, type: 3}
  m_AnimationClipSettings:
    serializedVersion: 2
    m_AdditiveReferencePoseClip: {fileID: 0}
    m_AdditiveReferencePoseTime: 0
    m_StartTime: 0
    m_StopTime: 0.33333334
    m_OrientationOffsetY: 0
    m_Level: 0
    m_CycleOffset: 0
    m_HasAdditiveReferencePose: 0
    m_LoopTime: 1
    m_LoopBlend: 0
    m_LoopBlendOrientation: 0
    m_LoopBlendPositionY: 0
    m_LoopBlendPositionXZ: 0
    m_KeepOriginalOrientation: 0
    m_KeepOriginalPositionY: 1
    m_KeepOriginalPositionXZ: 0
    m_HeightFromFeet: 0
    m_Mirror: 0
  m_EditorCurves: []
  m_EulerEditorCurves: []
  m_HasGenericRootTransform: 0
  m_HasMotionFloatCurves: 0
  m_Events: []
