%YAML 1.1
%TAG !u! tag:unity3d.com,2011:
--- !u!74 &7400000
AnimationClip:
  m_ObjectHideFlags: 0
  m_CorrespondingSourceObject: {fileID: 0}
  m_PrefabInstance: {fileID: 0}
  m_PrefabAsset: {fileID: 0}
  m_Name: JadWalk
  serializedVersion: 6
  m_Legacy: 0
  m_Compressed: 0
  m_UseHighQualityCurve: 1
  m_RotationCurves: []
  m_CompressedRotationCurves: []
  m_EulerCurves: []
  m_PositionCurves: []
  m_ScaleCurves: []
  m_FloatCurves: []
  m_PPtrCurves:
  - curve:
    - time: 0
      value: {fileID: 21300000, guid: 454972746e1d32742904d593349ae89e, type: 3}
    - time: 0.016666668
      value: {fileID: 21300000, guid: 31d1f862baa0b6542933799b359a428e, type: 3}
    - time: 0.033333335
      value: {fileID: 21300000, guid: e80b8358876da9a4b85bb6492f4e8dba, type: 3}
    - time: 0.05
      value: {fileID: 21300000, guid: a7bcf143aca5cff4a8747720172ee59b, type: 3}
    - time: 0.06666667
      value: {fileID: 21300000, guid: 29a251f7592b1c4418ce8a71ca548638, type: 3}
    - time: 0.083333336
      value: {fileID: 21300000, guid: a04536b23a047104c9340406d8f29596, type: 3}
    - time: 0.1
      value: {fileID: 21300000, guid: 52ecd7ee0ca2a9e44932469613fd7d11, type: 3}
    - time: 0.11666667
      value: {fileID: 21300000, guid: d51ea56e86030d448b4e064dd25c59fd, type: 3}
    - time: 0.13333334
      value: {fileID: 21300000, guid: ba51e442c0a5d5441b43671adc2cb126, type: 3}
    - time: 0.15
      value: {fileID: 21300000, guid: 0718c3f27e919094197cfe02ec4abadc, type: 3}
    - time: 0.16666667
      value: {fileID: 21300000, guid: f9db2ee61c3b8a843b0daefcf45e142c, type: 3}
    - time: 0.18333334
      value: {fileID: 21300000, guid: a8e46bac84c1eee48809381d689374b0, type: 3}
    - time: 0.2
      value: {fileID: 21300000, guid: e6b1f2498f7857c4da4f4265e1b65f3d, type: 3}
    - time: 0.21666667
      value: {fileID: 21300000, guid: c4951e147ed04374886c7a2185f7997b, type: 3}
    - time: 0.23333333
      value: {fileID: 21300000, guid: 5d56e505d4bbe8a41bcb02ffdff7b96c, type: 3}
    - time: 0.25
      value: {fileID: 21300000, guid: b7b2a0c2040f0934eb68ff8888575f3d, type: 3}
    - time: 0.26666668
      value: {fileID: 21300000, guid: 184b7f738d7bbf542a0ae471cdcc009b, type: 3}
    - time: 0.28333333
      value: {fileID: 21300000, guid: b17e8e4326015b24ca42f228aca3fdeb, type: 3}
    attribute: m_Sprite
    path: 
    classID: 212
    script: {fileID: 0}
  m_SampleRate: 60
  m_WrapMode: 0
  m_Bounds:
    m_Center: {x: 0, y: 0, z: 0}
    m_Extent: {x: 0, y: 0, z: 0}
  m_ClipBindingConstant:
    genericBindings:
    - serializedVersion: 2
      path: 0
      attribute: 0
      script: {fileID: 0}
      typeID: 212
      customType: 23
      isPPtrCurve: 1
    pptrCurveMapping:
    - {fileID: 21300000, guid: 454972746e1d32742904d593349ae89e, type: 3}
    - {fileID: 21300000, guid: 31d1f862baa0b6542933799b359a428e, type: 3}
    - {fileID: 21300000, guid: e80b8358876da9a4b85bb6492f4e8dba, type: 3}
    - {fileID: 21300000, guid: a7bcf143aca5cff4a8747720172ee59b, type: 3}
    - {fileID: 21300000, guid: 29a251f7592b1c4418ce8a71ca548638, type: 3}
    - {fileID: 21300000, guid: a04536b23a047104c9340406d8f29596, type: 3}
    - {fileID: 21300000, guid: 52ecd7ee0ca2a9e44932469613fd7d11, type: 3}
    - {fileID: 21300000, guid: d51ea56e86030d448b4e064dd25c59fd, type: 3}
    - {fileID: 21300000, guid: ba51e442c0a5d5441b43671adc2cb126, type: 3}
    - {fileID: 21300000, guid: 0718c3f27e919094197cfe02ec4abadc, type: 3}
    - {fileID: 21300000, guid: f9db2ee61c3b8a843b0daefcf45e142c, type: 3}
    - {fileID: 21300000, guid: a8e46bac84c1eee48809381d689374b0, type: 3}
    - {fileID: 21300000, guid: e6b1f2498f7857c4da4f4265e1b65f3d, type: 3}
    - {fileID: 21300000, guid: c4951e147ed04374886c7a2185f7997b, type: 3}
    - {fileID: 21300000, guid: 5d56e505d4bbe8a41bcb02ffdff7b96c, type: 3}
    - {fileID: 21300000, guid: b7b2a0c2040f0934eb68ff8888575f3d, type: 3}
    - {fileID: 21300000, guid: 184b7f738d7bbf542a0ae471cdcc009b, type: 3}
    - {fileID: 21300000, guid: b17e8e4326015b24ca42f228aca3fdeb, type: 3}
  m_AnimationClipSettings:
    serializedVersion: 2
    m_AdditiveReferencePoseClip: {fileID: 0}
    m_AdditiveReferencePoseTime: 0
    m_StartTime: 0
    m_StopTime: 0.3
    m_OrientationOffsetY: 0
    m_Level: 0
    m_CycleOffset: 0
    m_HasAdditiveReferencePose: 0
    m_LoopTime: 1
    m_LoopBlend: 0
    m_LoopBlendOrientation: 0
    m_LoopBlendPositionY: 0
    m_LoopBlendPositionXZ: 0
    m_KeepOriginalOrientation: 0
    m_KeepOriginalPositionY: 1
    m_KeepOriginalPositionXZ: 0
    m_HeightFromFeet: 0
    m_Mirror: 0
  m_EditorCurves: []
  m_EulerEditorCurves: []
  m_HasGenericRootTransform: 0
  m_HasMotionFloatCurves: 0
  m_Events: []
