%YAML 1.1
%TAG !u! tag:unity3d.com,2011:
--- !u!74 &7400000
AnimationClip:
  m_ObjectHideFlags: 0
  m_CorrespondingSourceObject: {fileID: 0}
  m_PrefabInstance: {fileID: 0}
  m_PrefabAsset: {fileID: 0}
  m_Name: Idlecop
  serializedVersion: 6
  m_Legacy: 0
  m_Compressed: 0
  m_UseHighQualityCurve: 1
  m_RotationCurves: []
  m_CompressedRotationCurves: []
  m_EulerCurves: []
  m_PositionCurves: []
  m_ScaleCurves: []
  m_FloatCurves: []
  m_PPtrCurves:
  - curve:
    - time: 0
      value: {fileID: 21300000, guid: b4584c17234e07447a8200ad78123632, type: 3}
    - time: 0.083333336
      value: {fileID: 21300000, guid: 42cb1ad663b8a8c4cbcd4a73f15dcce9, type: 3}
    - time: 0.16666667
      value: {fileID: 21300000, guid: 33b18f5330f62fd4394a7b12de8f1e36, type: 3}
    - time: 0.25
      value: {fileID: 21300000, guid: e1d2fd191ab629249a9bd3c245ffd6c5, type: 3}
    - time: 0.33333334
      value: {fileID: 21300000, guid: 241d4be4ef939b24e9195803167ddd2e, type: 3}
    - time: 0.41666666
      value: {fileID: 21300000, guid: af10b0c487399cf4dba3b7f4306b6aac, type: 3}
    - time: 0.5
      value: {fileID: 21300000, guid: ec26f426668287049aeb132ccae0b0e6, type: 3}
    - time: 0.5833333
      value: {fileID: 21300000, guid: 01f7b67979eb21a439403fa2d8cd73c4, type: 3}
    - time: 0.6666667
      value: {fileID: 21300000, guid: 92090ad35dbb91f41a72f05a1203088f, type: 3}
    - time: 0.75
      value: {fileID: 21300000, guid: db8d15be31a86bf4fad5cbe684f565dc, type: 3}
    - time: 0.8333333
      value: {fileID: 21300000, guid: 1846af1b8d3239049a2619631de18922, type: 3}
    - time: 0.9166667
      value: {fileID: 21300000, guid: 686618512a55d4b4c8a6895ec2c8afea, type: 3}
    - time: 1
      value: {fileID: 21300000, guid: f49844724d84132439ceb6c87871d6fa, type: 3}
    - time: 1.0833334
      value: {fileID: 21300000, guid: fcb1c566636d3954b9132a9cb20602d1, type: 3}
    - time: 1.1666666
      value: {fileID: 21300000, guid: 3bb9321fc22901d429360e1d951d2146, type: 3}
    - time: 1.25
      value: {fileID: 21300000, guid: 2d49a60b71a41b648be1edf01107f913, type: 3}
    - time: 1.3333334
      value: {fileID: 21300000, guid: a7c7194c04f0997488bee6ad4253e509, type: 3}
    - time: 1.4166666
      value: {fileID: 21300000, guid: 851df3e7d1ab49a46b331609b8d33d5c, type: 3}
    - time: 1.5
      value: {fileID: 21300000, guid: e6baf60c0365dd14ab7bf0e9e7995ffe, type: 3}
    - time: 1.5833334
      value: {fileID: 21300000, guid: b02cf0806fa987f44835c84bb33de9e8, type: 3}
    attribute: m_Sprite
    path: 
    classID: 212
    script: {fileID: 0}
  m_SampleRate: 12
  m_WrapMode: 0
  m_Bounds:
    m_Center: {x: 0, y: 0, z: 0}
    m_Extent: {x: 0, y: 0, z: 0}
  m_ClipBindingConstant:
    genericBindings:
    - serializedVersion: 2
      path: 0
      attribute: 0
      script: {fileID: 0}
      typeID: 212
      customType: 23
      isPPtrCurve: 1
    pptrCurveMapping:
    - {fileID: 21300000, guid: b4584c17234e07447a8200ad78123632, type: 3}
    - {fileID: 21300000, guid: 42cb1ad663b8a8c4cbcd4a73f15dcce9, type: 3}
    - {fileID: 21300000, guid: 33b18f5330f62fd4394a7b12de8f1e36, type: 3}
    - {fileID: 21300000, guid: e1d2fd191ab629249a9bd3c245ffd6c5, type: 3}
    - {fileID: 21300000, guid: 241d4be4ef939b24e9195803167ddd2e, type: 3}
    - {fileID: 21300000, guid: af10b0c487399cf4dba3b7f4306b6aac, type: 3}
    - {fileID: 21300000, guid: ec26f426668287049aeb132ccae0b0e6, type: 3}
    - {fileID: 21300000, guid: 01f7b67979eb21a439403fa2d8cd73c4, type: 3}
    - {fileID: 21300000, guid: 92090ad35dbb91f41a72f05a1203088f, type: 3}
    - {fileID: 21300000, guid: db8d15be31a86bf4fad5cbe684f565dc, type: 3}
    - {fileID: 21300000, guid: 1846af1b8d3239049a2619631de18922, type: 3}
    - {fileID: 21300000, guid: 686618512a55d4b4c8a6895ec2c8afea, type: 3}
    - {fileID: 21300000, guid: f49844724d84132439ceb6c87871d6fa, type: 3}
    - {fileID: 21300000, guid: fcb1c566636d3954b9132a9cb20602d1, type: 3}
    - {fileID: 21300000, guid: 3bb9321fc22901d429360e1d951d2146, type: 3}
    - {fileID: 21300000, guid: 2d49a60b71a41b648be1edf01107f913, type: 3}
    - {fileID: 21300000, guid: a7c7194c04f0997488bee6ad4253e509, type: 3}
    - {fileID: 21300000, guid: 851df3e7d1ab49a46b331609b8d33d5c, type: 3}
    - {fileID: 21300000, guid: e6baf60c0365dd14ab7bf0e9e7995ffe, type: 3}
    - {fileID: 21300000, guid: b02cf0806fa987f44835c84bb33de9e8, type: 3}
  m_AnimationClipSettings:
    serializedVersion: 2
    m_AdditiveReferencePoseClip: {fileID: 0}
    m_AdditiveReferencePoseTime: 0
    m_StartTime: 0
    m_StopTime: 1.6666667
    m_OrientationOffsetY: 0
    m_Level: 0
    m_CycleOffset: 0
    m_HasAdditiveReferencePose: 0
    m_LoopTime: 1
    m_LoopBlend: 0
    m_LoopBlendOrientation: 0
    m_LoopBlendPositionY: 0
    m_LoopBlendPositionXZ: 0
    m_KeepOriginalOrientation: 0
    m_KeepOriginalPositionY: 1
    m_KeepOriginalPositionXZ: 0
    m_HeightFromFeet: 0
    m_Mirror: 0
  m_EditorCurves: []
  m_EulerEditorCurves: []
  m_HasGenericRootTransform: 0
  m_HasMotionFloatCurves: 0
  m_Events: []
